02-09-2019 00:20:54 - FATAL - m: 5.5 MB, u: 0 -  - 46.229.168.135 - HTTP method invalid
08-09-2019 08:55:51 - FATAL - m: 5.5 MB, u: 0 -  - 46.229.168.129 - HTTP method invalid
18-09-2019 21:40:44 - FATAL - m: 5.5 MB, u: 0 -  - 46.229.168.152 - HTTP method invalid
25-09-2019 02:22:14 - FATAL - m: 5.5 MB, u: 0 -  - 46.229.168.134 - HTTP method invalid
