01-08-2020 23:46:21 - FATAL - m: 4.9 MB, u: 0 -  - 46.229.168.148 - HTTP method invalid
06-08-2020 09:03:01 - FATAL - m: 4.9 MB, u: 0 -  - 46.229.168.129 - HTTP method invalid
09-08-2020 14:16:55 - FATAL - m: 4.9 MB, u: 0 -  - 46.229.168.130 - HTTP method invalid
11-08-2020 17:15:47 - FATAL - m: 4.9 MB, u: 0 -  - 46.229.168.132 - HTTP method invalid
14-08-2020 15:51:23 - FATAL - m: 4.9 MB, u: 0 -  - 46.229.168.161 - HTTP method invalid
18-08-2020 12:49:12 - FATAL - m: 4.9 MB, u: 0 -  - 46.229.168.146 - HTTP method invalid
21-08-2020 08:49:16 - FATAL - m: 4.9 MB, u: 0 -  - 46.229.168.147 - HTTP method invalid
26-08-2020 04:39:52 - FATAL - m: 4.9 MB, u: 0 -  - 46.229.168.148 - HTTP method invalid
29-08-2020 03:03:53 - FATAL - m: 4.9 MB, u: 0 -  - 46.229.168.141 - HTTP method invalid
