08-05-2020 07:58:02 - FATAL - m: 5.5 MB, u: 0 -  - 46.229.168.152 - HTTP method invalid
10-05-2020 21:53:53 - FATAL - m: 5.5 MB, u: 0 -  - 46.229.168.151 - HTTP method invalid
15-05-2020 18:34:08 - FATAL - m: 5.5 MB, u: 0 -  - 46.229.168.147 - HTTP method invalid
23-05-2020 06:21:08 - FATAL - m: 5.5 MB, u: 0 -  - 46.229.168.146 - HTTP method invalid
25-05-2020 16:10:24 - FATAL - m: 5.5 MB, u: 0 -  - 46.229.168.143 - HTTP method invalid
29-05-2020 21:09:05 - FATAL - m: 5.6 MB, u: 0 -  - 46.229.168.135 - HTTP method invalid
